exploring-data-visually-2
…
view(starwars)

We can extract the names of the 14 variables using the names() function.

names(starwars)

 [1] "name"       "height"     "mass"       "hair_color" "skin_color"
 [6] "eye_color"  "birth_year" "sex"        "gender"     "homeworld" 
[11] "species"    "films"      "vehicles"   "starships" 

Let’s imagine that we only want to work with the starwars character’s names, height and mass. We start with the select() function and then type in the first argument which is the dataset that we’re working with, followed by the names of the variables that you want to include.

select(starwars,name, height, mass)

# A tibble: 87 × 3
   name               height  mass
   <chr>               <int> <dbl>
 1 Luke Skywalker        172    77
 2 C-3PO                 167    75
 3 R2-D2                  96    32
 4 Darth Vader           202   136
 5 Leia Organa           150    49
 6 Owen Lars             178   120
 7 Beru Whitesun lars    165    75
 8 R5-D4                  97    32
 9 Biggs Darklighter     183    84
10 Obi-Wan Kenobi        182    77
# … with 77 more rows

Similarly, we could filter the data to include only those characters that are taller than 100 cm. We start with the filter() function and then type in the first argument which is the dataset that you’re working with, followed by a phrase that describes your selection, like this:

filter(starwars, height > 100)

# A tibble: 74 × 14
   name        height  mass hair_…¹ skin_…² eye_c…³ birth…⁴ sex   gender homew…⁵
   <chr>        <int> <dbl> <chr>   <chr>   <chr>     <dbl> <chr> <chr>  <chr>  
 1 Luke Skywa…    172    77 blond   fair    blue       19   male  mascu… Tatooi…
 2 C-3PO          167    75 <NA>    gold    yellow    112   none  mascu… Tatooi…
 3 Darth Vader    202   136 none    white   yellow     41.9 male  mascu… Tatooi…
 4 Leia Organa    150    49 brown   light   brown      19   fema… femin… Aldera…
 5 Owen Lars      178   120 brown,… light   blue       52   male  mascu… Tatooi…
 6 Beru White…    165    75 brown   light   blue       47   fema… femin… Tatooi…
 7 Biggs Dark…    183    84 black   light   brown      24   male  mascu… Tatooi…
 8 Obi-Wan Ke…    182    77 auburn… fair    blue-g…    57   male  mascu… Stewjon
 9 Anakin Sky…    188    84 blond   fair    blue       41.9 male  mascu… Tatooi…
10 Wilhuff Ta…    180    NA auburn… fair    blue       64   male  mascu… Eriadu 
# … with 64 more rows, 4 more variables: species <chr>, films <list>,
#   vehicles <list>, starships <list>, and abbreviated variable names
#   ¹​hair_color, ²​skin_color, ³​eye_color, ⁴​birth_year, ⁵​homeworld

You might also want your data to be ordered from lightest to heaviest. Again, there is an intuitive function that will do just that, in this case the arrange() function. Again, your first argument is the dataset followed by the variable that you want the data to be arranged by.

arrange(starwars, mass)

# A tibble: 87 × 14
   name        height  mass hair_…¹ skin_…² eye_c…³ birth…⁴ sex   gender homew…⁵
   <chr>        <int> <dbl> <chr>   <chr>   <chr>     <dbl> <chr> <chr>  <chr>  
 1 Ratts Tyer…     79    15 none    grey, … unknown      NA male  mascu… Aleen …
 2 Yoda            66    17 white   green   brown       896 male  mascu… <NA>   
 3 Wicket Sys…     88    20 brown   brown   brown         8 male  mascu… Endor  
 4 R2-D2           96    32 <NA>    white,… red          33 none  mascu… Naboo  
 5 R5-D4           97    32 <NA>    white,… red          NA none  mascu… Tatooi…
 6 Sebulba        112    40 none    grey, … orange       NA male  mascu… Malast…
 7 Dud Bolt        94    45 none    blue, … yellow       NA male  mascu… Vulpter
 8 Padmé Amid…    165    45 brown   light   brown        46 fema… femin… Naboo  
 9 Wat Tambor     193    48 none    green,… unknown      NA male  mascu… Skako  
10 Sly Moore      178    48 none    pale    white        NA <NA>  <NA>   Umbara 
# … with 77 more rows, 4 more variables: species <chr>, films <list>,
#   vehicles <list>, starships <list>, and abbreviated variable names
#   ¹​hair_color, ²​skin_color, ³​eye_color, ⁴​birth_year, ⁵​homeworld

Changing a variable with mutate()

You’ll notice that in the starwars dataset, the height variable is in centimeters. You may want to change that to meters by dividing each value by 100. Easy. The mutate() function follows a similar format to the functions above.

mutate(starwars, height = height/100)

# A tibble: 87 × 14
   name        height  mass hair_…¹ skin_…² eye_c…³ birth…⁴ sex   gender homew…⁵
   <chr>        <dbl> <dbl> <chr>   <chr>   <chr>     <dbl> <chr> <chr>  <chr>  
 1 Luke Skywa…   1.72    77 blond   fair    blue       19   male  mascu… Tatooi…
 2 C-3PO         1.67    75 <NA>    gold    yellow    112   none  mascu… Tatooi…
 3 R2-D2         0.96    32 <NA>    white,… red        33   none  mascu… Naboo  
 4 Darth Vader   2.02   136 none    white   yellow     41.9 male  mascu… Tatooi…
 5 Leia Organa   1.5     49 brown   light   brown      19   fema… femin… Aldera…
 6 Owen Lars     1.78   120 brown,… light   blue       52   male  mascu… Tatooi…
 7 Beru White…   1.65    75 brown   light   blue       47   fema… femin… Tatooi…
 8 R5-D4         0.97    32 <NA>    white,… red        NA   none  mascu… Tatooi…
 9 Biggs Dark…   1.83    84 black   light   brown      24   male  mascu… Tatooi…
10 Obi-Wan Ke…   1.82    77 auburn… fair    blue-g…    57   male  mascu… Stewjon
# … with 77 more rows, 4 more variables: species <chr>, films <list>,
#   vehicles <list>, starships <list>, and abbreviated variable names
#   ¹​hair_color, ²​skin_color, ³​eye_color, ⁴​birth_year, ⁵​homeworld

Piping it all together

In each of the examples above, we’ve applied one function to the data and produced an output. That output is a new data object with a new set of parameters and characteristics. What if we wanted to apply all of them? In other words, select, certain variables, filter the rows, arrange the data and mutate one of the variables, all at once.

One of the most exciting and powerful features of the tidyverse packages is the ability to take the output of any function and pass it on (or pipe it) to the next function. To do this we use what is called “pipe operators” that look funny but have a very simple meaning. The classic pipe opporator looks like this “%>%” (so it looks a little like a pipe) and it simple means, “and then”. Let’s take a look:

starwars %>% 
  select(name, height, mass) %>% 
  filter(height > 100) %>% 
  arrange(mass) %>% 
  mutate(height = height/100)

# A tibble: 74 × 3
   name            height  mass
   <chr>            <dbl> <dbl>
 1 Sebulba           1.12  40  
 2 Padmé Amidala     1.65  45  
 3 Wat Tambor        1.93  48  
 4 Sly Moore         1.78  48  
 5 Leia Organa       1.5   49  
 6 Adi Gallia        1.84  50  
 7 Barriss Offee     1.66  50  
 8 Ayla Secura       1.78  55  
 9 Zam Wesell        1.68  55  
10 Luminara Unduli   1.7   56.2
# … with 64 more rows
…
